…
#Mega only

pokestat %>% group_by(Type1, Type2) %>% summarize(mean=mean(Total), usage=mean(raw_unweighed), usagesd = sd(raw_unweighed)) %>% arrange(desc(mean))

## # A tibble: 146 x 5
## # Groups:   Type1 [18]
##    Type1    Type2    mean   usage usagesd
##    <fct>    <fct>   <dbl>   <dbl>   <dbl>
##  1 Dragon   Ice       680 101037   89575.
##  2 Dragon   Psychic   650  49829.  14632.
##  3 Rock     Dark      650 189408.  41606.
##  4 Grass    Dragon    630  43233       0 
##  5 Electric Dragon    610  12863       0 
##  6 Fire     Steel     600 519057       0 
##  7 Fire     Water     600  46222       0 
##  8 Psychic  Fire      600 238245       0 
##  9 Psychic  Grass     600  13216       0 
## 10 Dragon   Fairy     590  30637       0 
## # … with 136 more rows
…
